{
    "openapi": "3.0.0",
    "info": {
        "title": "Simple Planning Api",
        "description": "api routes",
        "contact": {
            "email": "mdpdevde@henallux.be"
        },
        "license": {
            "name": "Apache 2.0",
            "url": "https://www.apache.org/licenses/LICENSE-2.0.html"
        },
        "version": "1.0.0",
        "x-logo": {
            "url": "https://via.placeholder.com/190x90.png?text=L5-Swagger"
        }
    },
    "paths": {
        "/api/diagnostic/promotions/{name}": {
            "get": {
                "tags": [
                    "diagnostic"
                ],
                "summary": "get diagnostic of specific promotion",
                "description": "get diagnostic as json of the specified promotion",
                "operationId": "get_diagnostic_promotion_specific",
                "parameters": [
                    {
                        "name": "name",
                        "in": "path",
                        "description": "hp name of promotion",
                        "required": true,
                        "schema": {
                            "type": "string",
                            "default": "IE-DR-3B-E",
                            "enum": [
                                "PB-NSFR-1B-A",
                                "CH-NPRES-3B-D",
                                "IE-NSEFS-3B-C"
                            ]
                        }
                    }
                ],
                "responses": {
                    "200": {
                        "description": "Return diagnostic as json"
                    },
                    "204": {
                        "description": "No diagnostic for this request"
                    }
                },
                "security": [
                    {
                        "diagnostic_auth": [
                            "write:diagnostic",
                            "read:diagnostic"
                        ]
                    }
                ]
            }
        },
        "/api/diagnostic/promotions": {
            "get": {
                "tags": [
                    "diagnostic"
                ],
                "summary": "get diagnostic of all promotions",
                "description": "get diagnostic as json for all promotions with error",
                "operationId": "get_diagnostic_promotion_all",
                "responses": {
                    "200": {
                        "description": "Return diagnostic as json"
                    },
                    "204": {
                        "description": "No diagnostic for this request"
                    }
                },
                "security": [
                    {
                        "diagnostic_auth": [
                            "write:diagnostic",
                            "read:diagnostic"
                        ]
                    }
                ]
            }
        },
        "/api/diagnostic/students/{numproeco}": {
            "get": {
                "tags": [
                    "diagnostic"
                ],
                "summary": "get diagnostic of specific student",
                "description": "get diagnostic as json of the specified student",
                "operationId": "get_diagnostic_student_specific",
                "parameters": [
                    {
                        "name": "name",
                        "in": "path",
                        "description": "hp name of student",
                        "required": true,
                        "schema": {
                            "type": "string",
                            "default": "24802",
                            "enum": [
                                "52403",
                                "52941",
                                "52906"
                            ]
                        }
                    }
                ],
                "responses": {
                    "200": {
                        "description": "Return diagnostic as json"
                    },
                    "204": {
                        "description": "No diagnostic for this request"
                    }
                },
                "security": [
                    {
                        "diagnostic_auth": [
                            "write:diagnostic",
                            "read:diagnostic"
                        ]
                    }
                ]
            }
        },
        "/api/diagnostic/students": {
            "get": {
                "tags": [
                    "diagnostic"
                ],
                "summary": "get diagnostic of all students",
                "description": "get diagnostic as json for all students with error",
                "operationId": "get_diagnostic_student_all",
                "responses": {
                    "200": {
                        "description": "Return diagnostic as json"
                    },
                    "204": {
                        "description": "No diagnostic for this request"
                    }
                },
                "security": [
                    {
                        "diagnostic_auth": [
                            "write:diagnostic",
                            "read:diagnostic"
                        ]
                    }
                ]
            }
        },
        "/api/diagnostic/teachers/{login}": {
            "get": {
                "tags": [
                    "diagnostic"
                ],
                "summary": "get diagnostic of specific student",
                "description": "get diagnostic as json of the specified student",
                "operationId": "get_diagnostic_teacher_specific",
                "parameters": [
                    {
                        "name": "login",
                        "in": "path",
                        "description": "login name as mdpdevde",
                        "required": true,
                        "schema": {
                            "type": "string",
                            "default": "mdpdevde",
                            "enum": [
                                "mdpabsje",
                                "mdpcolch",
                                "mdpfralu"
                            ]
                        }
                    }
                ],
                "responses": {
                    "200": {
                        "description": "Return diagnostic as json"
                    },
                    "204": {
                        "description": "No diagnostic for this request"
                    }
                },
                "security": [
                    {
                        "diagnostic_auth": [
                            "write:diagnostic",
                            "read:diagnostic"
                        ]
                    }
                ]
            }
        },
        "/api/diagnostic/teachers": {
            "get": {
                "tags": [
                    "diagnostic"
                ],
                "summary": "get diagnostic of all teachers",
                "description": "get diagnostic as json for all teachers with error",
                "operationId": "get_diagnostic_teacher_all",
                "responses": {
                    "200": {
                        "description": "Return diagnostic as json"
                    },
                    "204": {
                        "description": "No diagnostic for this request"
                    }
                },
                "security": [
                    {
                        "diagnostic_auth": [
                            "write:diagnostic",
                            "read:diagnostic"
                        ]
                    }
                ]
            }
        },
        "/api/diagnostic/rooms/{name}": {
            "get": {
                "tags": [
                    "diagnostic"
                ],
                "summary": "get diagnostic of specific room",
                "description": "get diagnostic as json of the specified room",
                "operationId": "get_diagnostic_room_specific",
                "parameters": [
                    {
                        "name": "name",
                        "in": "path",
                        "description": "name of room",
                        "required": true,
                        "schema": {
                            "type": "string",
                            "default": "'PA-Salle B'",
                            "enum": [
                                "'Ecole sociale JPO'",
                                "'PA - FC -CHRN'",
                                "'PA-Salle B'"
                            ]
                        }
                    }
                ],
                "responses": {
                    "200": {
                        "description": "Return diagnostic as json"
                    },
                    "204": {
                        "description": "No diagnostic for this request"
                    }
                },
                "security": [
                    {
                        "diagnostic_auth": [
                            "write:diagnostic",
                            "read:diagnostic"
                        ]
                    }
                ]
            }
        },
        "/api/diagnostic/rooms": {
            "get": {
                "tags": [
                    "diagnostic"
                ],
                "summary": "get diagnostic of all rooms",
                "description": "get diagnostic as json for all rooms with error",
                "operationId": "get_diagnostic_room_all",
                "responses": {
                    "200": {
                        "description": "Return diagnostic as json"
                    },
                    "204": {
                        "description": "No diagnostic for this request"
                    }
                },
                "security": [
                    {
                        "diagnostic_auth": [
                            "write:diagnostic",
                            "read:diagnostic"
                        ]
                    }
                ]
            }
        },
        "/api/diagnostic/externs/{login}": {
            "get": {
                "tags": [
                    "diagnostic"
                ],
                "summary": "get diagnostic of specific extern",
                "description": "get diagnostic as json of the specified extern",
                "operationId": "get_diagnostic_extern_specific",
                "parameters": [
                    {
                        "name": "login",
                        "in": "path",
                        "description": "login name of extern",
                        "required": true,
                        "schema": {
                            "type": "string",
                            "default": "extchabe",
                            "enum": [
                                "extgodna",
                                "extderbe",
                                "extchabe"
                            ]
                        }
                    }
                ],
                "responses": {
                    "200": {
                        "description": "Return diagnostic as json"
                    },
                    "204": {
                        "description": "No diagnostic for this request"
                    }
                },
                "security": [
                    {
                        "diagnostic_auth": [
                            "write:diagnostic",
                            "read:diagnostic"
                        ]
                    }
                ]
            }
        },
        "/api/diagnostic/externs": {
            "get": {
                "tags": [
                    "diagnostic"
                ],
                "summary": "get diagnostic of all externs",
                "description": "get diagnostic as json for all externs with error",
                "operationId": "get_diagnostic_extern_all",
                "responses": {
                    "200": {
                        "description": "Return diagnostic as json"
                    },
                    "204": {
                        "description": "No diagnostic for this request"
                    }
                },
                "security": [
                    {
                        "diagnostic_auth": [
                            "write:diagnostic",
                            "read:diagnostic"
                        ]
                    }
                ]
            }
        },
        "/api/externs/calendar/{keys}/{nb_weeks}": {
            "get": {
                "tags": [
                    "externs"
                ],
                "summary": "get externs calendar",
                "description": "get externs calendar as json for on or more externs hp key ",
                "operationId": "get_externs_calendar",
                "parameters": [
                    {
                        "name": "keys",
                        "in": "path",
                        "description": "json array of hp keys or unique value",
                        "required": true,
                        "schema": {
                            "type": "string",
                            "default": "['6433']",
                            "enum": [
                                "['6433']",
                                "['6433', '7400']",
                                "6433"
                            ]
                        }
                    },
                    {
                        "name": "nb_weeks",
                        "in": "path",
                        "description": "nb weeks to get",
                        "required": false,
                        "schema": {
                            "type": "integer",
                            "default": 25,
                            "enum": [
                                25,
                                33,
                                53
                            ]
                        }
                    }
                ],
                "responses": {
                    "200": {
                        "description": "Return calendar as json"
                    },
                    "204": {
                        "description": "No calendar for this request"
                    }
                },
                "security": [
                    {
                        "externs_auth": [
                            "write:externs",
                            "read:externs"
                        ]
                    }
                ]
            }
        },
        "/api/promotions/calendar/{keys}/{nb_weeks}": {
            "get": {
                "tags": [
                    "promotions"
                ],
                "summary": "get promotions calendar",
                "description": "get promotions calendar as json for on or more promotion hp key ",
                "operationId": "get_promotions_calendar",
                "parameters": [
                    {
                        "name": "keys",
                        "in": "path",
                        "description": "json array of hp keys or unique value",
                        "required": true,
                        "schema": {
                            "type": "string",
                            "default": "['5689']",
                            "enum": [
                                "['5689']",
                                "['5689', '1110']",
                                "5689"
                            ]
                        }
                    },
                    {
                        "name": "nb_weeks",
                        "in": "path",
                        "description": "nb weeks to get",
                        "required": false,
                        "schema": {
                            "type": "integer",
                            "default": 25,
                            "enum": [
                                25,
                                33,
                                53
                            ]
                        }
                    }
                ],
                "responses": {
                    "200": {
                        "description": "Return calendar as json"
                    },
                    "204": {
                        "description": "No calendar for this request"
                    }
                },
                "security": [
                    {
                        "promotions_auth": [
                            "write:promotions",
                            "read:promotions"
                        ]
                    }
                ]
            }
        },
        "/api/rooms/calendar/{keys}/{nb_weeks}": {
            "get": {
                "tags": [
                    "rooms"
                ],
                "summary": "get rooms calendar",
                "description": "get rooms calendar as json for on or more rooms hp key ",
                "operationId": "get_rooms_calendar",
                "parameters": [
                    {
                        "name": "keys",
                        "in": "path",
                        "description": "json array of hp keys or unique value",
                        "required": true,
                        "schema": {
                            "type": "string",
                            "default": "['4999']",
                            "enum": [
                                "['4999']",
                                "['4999', '8640']",
                                "4999"
                            ]
                        }
                    },
                    {
                        "name": "nb_weeks",
                        "in": "path",
                        "description": "nb weeks to get",
                        "required": false,
                        "schema": {
                            "type": "integer",
                            "default": 25,
                            "enum": [
                                25,
                                33,
                                53
                            ]
                        }
                    }
                ],
                "responses": {
                    "200": {
                        "description": "Return calendar as json"
                    },
                    "204": {
                        "description": "No calendar for this request"
                    }
                },
                "security": [
                    {
                        "rooms_auth": [
                            "write:rooms",
                            "read:rooms"
                        ]
                    }
                ]
            }
        },
        "/api/rooms/ical/{key}/{nb_weeks}": {
            "get": {
                "tags": [
                    "rooms"
                ],
                "summary": "get rooms calendar",
                "description": "get rooms calendar as json for on or more rooms hp key ",
                "operationId": "get_rooms_ical",
                "parameters": [
                    {
                        "name": "key",
                        "in": "path",
                        "description": "hp key of room",
                        "required": true,
                        "schema": {
                            "type": "string",
                            "default": "4999",
                            "enum": [
                                "4999",
                                "8640",
                                "8773"
                            ]
                        }
                    },
                    {
                        "name": "nb_weeks",
                        "in": "path",
                        "description": "nb weeks to get",
                        "required": false,
                        "schema": {
                            "type": "integer",
                            "default": 25,
                            "enum": [
                                25,
                                33,
                                53
                            ]
                        }
                    }
                ],
                "responses": {
                    "200": {
                        "description": "Return calendar as json"
                    },
                    "204": {
                        "description": "No calendar for this request"
                    }
                },
                "security": [
                    {
                        "rooms_auth": [
                            "write:rooms",
                            "read:rooms"
                        ]
                    }
                ]
            }
        },
        "/api/students/calendar/{keys}/{nb_weeks}": {
            "get": {
                "tags": [
                    "students"
                ],
                "summary": "get students calendar",
                "description": "get students calendar as json for on or more students hp key ",
                "operationId": "get_students_calendar",
                "parameters": [
                    {
                        "name": "keys",
                        "in": "path",
                        "description": "json array of hp keys or unique value",
                        "required": true,
                        "schema": {
                            "type": "string",
                            "default": "['5689']",
                            "enum": [
                                "['5689']",
                                "['5689', '1110']",
                                "5689"
                            ]
                        }
                    },
                    {
                        "name": "nb_weeks",
                        "in": "path",
                        "description": "nb weeks to get",
                        "required": false,
                        "schema": {
                            "type": "integer",
                            "default": 25,
                            "enum": [
                                25,
                                33,
                                53
                            ]
                        }
                    }
                ],
                "responses": {
                    "200": {
                        "description": "Return calendar as json"
                    },
                    "204": {
                        "description": "No calendar for this request"
                    }
                },
                "security": [
                    {
                        "students_auth": [
                            "write:students",
                            "read:students"
                        ]
                    }
                ]
            }
        },
        "/api/teachers/calendar/{keys}/{nb_weeks}": {
            "get": {
                "tags": [
                    "teachers"
                ],
                "summary": "get teachers calendar",
                "description": "get teachers calendar as json for on or more teachers hp key ",
                "operationId": "get_teachers_calendar",
                "parameters": [
                    {
                        "name": "keys",
                        "in": "path",
                        "description": "json array of hp keys or unique value",
                        "required": true,
                        "schema": {
                            "type": "string",
                            "default": "['6433']",
                            "enum": [
                                "['6433']",
                                "['6433', '7400']",
                                "6433"
                            ]
                        }
                    },
                    {
                        "name": "nb_weeks",
                        "in": "path",
                        "description": "nb weeks to get",
                        "required": false,
                        "schema": {
                            "type": "integer",
                            "default": 25,
                            "enum": [
                                25,
                                33,
                                53
                            ]
                        }
                    }
                ],
                "responses": {
                    "200": {
                        "description": "Return calendar as json"
                    },
                    "204": {
                        "description": "No calendar for this request"
                    }
                },
                "security": [
                    {
                        "teachers_auth": [
                            "write:teachers",
                            "read:teachers"
                        ]
                    }
                ]
            }
        }
    }
}